<?xml version="1.0" encoding="iso-8859-1"?>
<!-- Generator: Adobe Illustrator 16.0.0, SVG Export Plug-In . SVG Version: 6.00 Build 0)  -->
<!DOCTYPE svg PUBLIC "-//W3C//DTD SVG 1.1//EN" "http://www.w3.org/Graphics/SVG/1.1/DTD/svg11.dtd">
<svg version="1.1" id="Capa_1" xmlns="http://www.w3.org/2000/svg" xmlns:xlink="http://www.w3.org/1999/xlink" x="0px" y="0px"
	 width="971.986px" height="971.986px" viewBox="0 0 971.986 971.986" fill="#fff" style="enable-background:new 0 0 971.986 971.986;"
	 xml:space="preserve">
<g>
	<path d="M370.216,459.3c10.2,11.1,15.8,25.6,15.8,40.6v442c0,26.601,32.1,40.101,51.1,21.4l123.3-141.3
		c16.5-19.8,25.6-29.601,25.6-49.2V500c0-15,5.7-29.5,15.8-40.601L955.615,75.5c26.5-28.8,6.101-75.5-33.1-75.5h-873
		c-39.2,0-59.7,46.6-33.1,75.5L370.216,459.3z"/>
</g>
<g>
</g>
<g>
</g>
<g>
</g>
<g>
</g>
<g>
</g>
<g>
</g>
<g>
</g>
<g>
</g>
<g>
</g>
<g>
</g>
<g>
</g>
<g>
</g>
<g>
</g>
<g>
</g>
<g>
</g>
</svg>
